prac-day-four
…
# A tibble: 1 × 1
  proportion
       <dbl>
1      0.105

# Question 6:
# Routes with more than one airline
multi_airline_routes <- flights %>%
  group_by(origin, dest) %>%
  filter(n_distinct(carrier) > 1) %>%
  ungroup() %>%
  distinct(origin, dest)
print(multi_airline_routes)

# A tibble: 128 × 2
   origin dest 
   <chr>  <chr>
 1 JFK    MIA  
 2 LGA    ATL  
 3 EWR    ORD  
 4 EWR    FLL  
 5 LGA    IAD  
 6 JFK    MCO  
 7 LGA    ORD  
 8 JFK    TPA  
 9 JFK    LAX  
10 EWR    SFO  
# ℹ 118 more rows
…
# Step 3: Calculate average arrival delay per airline on those routes, excluding NAs
avg_arrival_delay <- multi_airline_routes %>%
  group_by(route, carrier) %>%
  summarise(avg_arrival_delay = mean(arr_delay, na.rm = TRUE)) %>%
  ungroup()

`summarise()` has grouped output by 'route'. You can override using the
`.groups` argument.

print(avg_arrival_delay)

# A tibble: 343 × 3
   route   carrier avg_arrival_delay
   <chr>   <chr>               <dbl>
 1 EWR_ATL 9E                  -6.25
 2 EWR_ATL DL                  10.0 
 3 EWR_ATL EV                  19.5 
 4 EWR_ATL UA                  10.5 
 5 EWR_AUS UA                   4.28
 6 EWR_AUS WN                 -11.2 
 7 EWR_BDL EV                   6.78
 8 EWR_BDL UA                  22.6 
 9 EWR_BNA EV                  17.7 
10 EWR_BNA WN                  -2.13
# ℹ 333 more rows
# Airline with the worst and best average arrival delay for each route
best_worst_airline <- avg_arrival_delay %>%
  group_by(route) %>%
  arrange(route, avg_arrival_delay) %>%
  summarise(
    best_airline = first(carrier),
    worst_airline = last(carrier),
    best_delay = first(avg_arrival_delay),
    worst_delay = last(avg_arrival_delay)
  ) %>%
  ungroup()

print(best_worst_airline)

# A tibble: 128 × 5
   route   best_airline worst_airline best_delay worst_delay
   <chr>   <chr>        <chr>              <dbl>       <dbl>
 1 EWR_ATL 9E           EV                -6.25        19.5 
 2 EWR_AUS WN           UA               -11.2          4.28
 3 EWR_BDL EV           UA                 6.78        22.6 
 4 EWR_BNA WN           EV                -2.13        17.7 
 5 EWR_BOS EV           B6                -4.01         6.87
 6 EWR_BWI WN           EV                 5.95        20.1 
 7 EWR_CHS UA           EV               -14           16.2 
 8 EWR_CLE EV           UA                -3.71         5.97
 9 EWR_CLT US           EV                 0.920       20.5 
10 EWR_CVG 9E           EV                 1.40        21.2 
# ℹ 118 more rows
…
